<svg width="19" height="24" viewBox="0 0 19 14" version="1.1" xmlns="http://www.w3.org/2000/svg">
    <path d="M14.63,0.84C14.27,0.33 13.67,0 13,0L2,0.01C0.9,0.01 0,0.9 0,2L0,12C0,13.1 0.9,13.99 2,13.99L13,14C13.67,14 14.27,13.67 14.63,13.16L19,7L14.63,0.84Z"/>
</svg>
