<svg viewBox="0 0 40 40" xmlns="http://www.w3.org/2000/svg" fill-rule="evenodd">
    <path d="M9.86 2.67a19.64 19.64 0 0 1 27 7.32 20.23 20.23 0 0 1-7.24 27.32 19.64 19.64 0 0 1-27-7.32A20.23 20.23 0 0 1 9.87 2.67zm23.38 20.98a13.91 13.91 0 0 1-25.61 3.42 14.31 14.31 0 0 1 5.12-19.34 13.78 13.78 0 0 1 10.6-1.4l-1.06 4.03a9.72 9.72 0 0 0-7.48 1 10.1 10.1 0 0 0-3.6 13.62 9.8 9.8 0 0 0 18.05-2.41l3.98 1.08z" fill="#fff"/>
</svg>
